^C:\USERS\MSZAKACS\REPOS\MCCRYOT\MOLFLOWSUB_PROJECT\RELEASE\INTERSECTAABB.OBJ|C:\USERS\MSZAKACS\REPOS\MCCRYOT\MOLFLOWSUB_PROJECT\RELEASE\MOLFLOWSUB.OBJ|C:\USERS\MSZAKACS\REPOS\MCCRYOT\MOLFLOWSUB_PROJECT\RELEASE\RANDOM.OBJ|C:\USERS\MSZAKACS\REPOS\MCCRYOT\MOLFLOWSUB_PROJECT\RELEASE\SHMEMORY.OBJ|C:\USERS\MSZAKACS\REPOS\MCCRYOT\MOLFLOWSUB_PROJECT\RELEASE\SIMULATIONAC.OBJ|C:\USERS\MSZAKACS\REPOS\MCCRYOT\MOLFLOWSUB_PROJECT\RELEASE\SIMULATIONCONTROL.OBJ|C:\USERS\MSZAKACS\REPOS\MCCRYOT\MOLFLOWSUB_PROJECT\RELEASE\SIMULATIONMC.OBJ
/OUT:"..\RELEASE\MCCRYOTSUB.EXE" /NOLOGO KERNEL32.LIB USER32.LIB GDI32.LIB WINSPOOL.LIB COMDLG32.LIB ADVAPI32.LIB SHELL32.LIB OLE32.LIB OLEAUT32.LIB UUID.LIB ODBC32.LIB ODBCCP32.LIB /MANIFEST /MANIFESTUAC:"level='asInvoker' uiAccess='false'" /manifest:embed /PDB:"..\RELEASE\MCCRYOTSUB.PDB" /SUBSYSTEM:CONSOLE,"5.01" /OPT:REF /OPT:ICF /LTCG:incremental /LTCGOUT:"RELEASE\MCCRYOTSUB.IOBJ" /TLBID:1 /DYNAMICBASE /NXCOMPAT /IMPLIB:"..\RELEASE\MCCRYOTSUB.LIB" /MACHINE:X86 /SAFESEH RELEASE\INTERSECTAABB.OBJ
RELEASE\MOLFLOWSUB.OBJ
RELEASE\RANDOM.OBJ
RELEASE\SIMULATIONAC.OBJ
RELEASE\SIMULATIONCONTROL.OBJ
RELEASE\SIMULATIONMC.OBJ
RELEASE\SHMEMORY.OBJ
