^C:\USERS\MSZAKACS\REPOS\MCCRYOT\COMPRESS_PROJECT\RELEASE\COMPRESS.OBJ
C:\USERS\MSZAKACS\REPOS\MCCRYOT\RELEASE\COMPRESS.EXE
C:\USERS\MSZAKACS\REPOS\MCCRYOT\COMPRESS_PROJECT\RELEASE\COMPRESS.IPDB
C:\USERS\MSZAKACS\REPOS\MCCRYOT\COMPRESS_PROJECT\RELEASE\COMPRESS.IOBJ
